SplineFontDB: 3.0
FontName: jileaf_digital_digits
FullName: jileaf_digital_digits
FamilyName: jileaf
Weight: Regular
Copyright: Copyright (c) 2019, Vitaliy Manushkin <agri@akamo.info>
UComments: "2019-2-13: Created with FontForge (http://fontforge.org)"
Version: 001.000
ItalicAngle: 0
UnderlinePosition: -100
UnderlineWidth: 50
Ascent: 800
Descent: 200
InvalidEm: 0
LayerCount: 2
Layer: 0 0 "Back" 1
Layer: 1 0 "Fore" 0
XUID: [1021 566 -210188685 9222872]
OS2Version: 0
OS2_WeightWidthSlopeOnly: 0
OS2_UseTypoMetrics: 1
CreationTime: 1550076310
ModificationTime: 1550945599
OS2TypoAscent: 0
OS2TypoAOffset: 1
OS2TypoDescent: 0
OS2TypoDOffset: 1
OS2TypoLinegap: 0
OS2WinAscent: 0
OS2WinAOffset: 1
OS2WinDescent: 0
OS2WinDOffset: 1
HheadAscent: 0
HheadAOffset: 1
HheadDescent: 0
HheadDOffset: 1
OS2Vendor: 'PfEd'
MarkAttachClasses: 1
DEI: 91125
LangName: 1033 "" "" "" "" "" "" "" "" "" "Vitaliy Manushkin <agri@akamo.info>" "MIT License+AA0ACgANAAoA-Permission is hereby granted, free of charge, to any person obtaining a copy+AA0ACgAA-of this software and associated documentation files (the +ACIA-Software+ACIA), to deal+AA0ACgAA-in the Software without restriction, including without limitation the rights+AA0ACgAA-to use, copy, modify, merge, publish, distribute, sublicense, and/or sell+AA0ACgAA-copies of the Software, and to permit persons to whom the Software is+AA0ACgAA-furnished to do so, subject to the following conditions:+AA0ACgANAAoA-The above copyright notice and this permission notice shall be included in all+AA0ACgAA-copies or substantial portions of the Software.+AA0ACgANAAoA-THE SOFTWARE IS PROVIDED +ACIA-AS IS+ACIA, WITHOUT WARRANTY OF ANY KIND, EXPRESS OR+AA0ACgAA-IMPLIED, INCLUDING BUT NOT LIMITED TO THE WARRANTIES OF MERCHANTABILITY,+AA0ACgAA-FITNESS FOR A PARTICULAR PURPOSE AND NONINFRINGEMENT. IN NO EVENT SHALL THE+AA0ACgAA-AUTHORS OR COPYRIGHT HOLDERS BE LIABLE FOR ANY CLAIM, DAMAGES OR OTHER+AA0ACgAA-LIABILITY, WHETHER IN AN ACTION OF CONTRACT, TORT OR OTHERWISE, ARISING FROM,+AA0ACgAA-OUT OF OR IN CONNECTION WITH THE SOFTWARE OR THE USE OR OTHER DEALINGS IN THE+AA0ACgAA-SOFTWARE." "" "" "MIT License+AA0ACgANAAoA-Permission is hereby granted, free of charge, to any person obtaining a copy+AA0ACgAA-of this software and associated documentation files (the +ACIA-Software+ACIA), to deal+AA0ACgAA-in the Software without restriction, including without limitation the rights+AA0ACgAA-to use, copy, modify, merge, publish, distribute, sublicense, and/or sell+AA0ACgAA-copies of the Software, and to permit persons to whom the Software is+AA0ACgAA-furnished to do so, subject to the following conditions:+AA0ACgANAAoA-The above copyright notice and this permission notice shall be included in all+AA0ACgAA-copies or substantial portions of the Software.+AA0ACgANAAoA-THE SOFTWARE IS PROVIDED +ACIA-AS IS+ACIA, WITHOUT WARRANTY OF ANY KIND, EXPRESS OR+AA0ACgAA-IMPLIED, INCLUDING BUT NOT LIMITED TO THE WARRANTIES OF MERCHANTABILITY,+AA0ACgAA-FITNESS FOR A PARTICULAR PURPOSE AND NONINFRINGEMENT. IN NO EVENT SHALL THE+AA0ACgAA-AUTHORS OR COPYRIGHT HOLDERS BE LIABLE FOR ANY CLAIM, DAMAGES OR OTHER+AA0ACgAA-LIABILITY, WHETHER IN AN ACTION OF CONTRACT, TORT OR OTHERWISE, ARISING FROM,+AA0ACgAA-OUT OF OR IN CONNECTION WITH THE SOFTWARE OR THE USE OR OTHER DEALINGS IN THE+AA0ACgAA-SOFTWARE." "https://opensource.org/licenses/MIT"
Encoding: ISO8859-1
UnicodeInterp: none
NameList: AGL For New Fonts
DisplaySize: -48
AntiAlias: 1
FitToEm: 0
WinInfo: 0 35 14
BeginPrivate: 0
EndPrivate
BeginChars: 256 10

StartChar: zero
Encoding: 48 48 0
Width: 550
Flags: W
HStem: 0 80<140 410> 620 80<140 410>
VStem: 55 80<85 305 395 615> 415 80<85 305 395 615>
LayerCount: 2
Fore
SplineSet
140 700 m 1
 410 700 l 5
 451 660 l 4
 410 620 l 5
 140 620 l 1
 100 660 l 1
 140 700 l 1
140 80 m 1
 410 80 l 5
 451 40 l 4
 410 0 l 5
 140 0 l 1
 100 40 l 1
 140 80 l 1
415 395 m 5
 415 615 l 5
 455 655 l 4
 495 615 l 5
 495 395 l 5
 455 355 l 5
 415 395 l 5
415 85 m 5
 415 305 l 5
 455 345 l 4
 495 305 l 5
 495 85 l 5
 455 45 l 5
 415 85 l 5
55 395 m 1
 55 615 l 1
 95 655 l 0
 135 615 l 1
 135 395 l 1
 95 355 l 1
 55 395 l 1
55 85 m 1
 55 305 l 1
 95 345 l 0
 135 305 l 1
 135 85 l 1
 95 45 l 1
 55 85 l 1
EndSplineSet
EndChar

StartChar: one
Encoding: 49 49 1
Width: 550
Flags: W
VStem: 325 80<85 305 395 615>
LayerCount: 2
Fore
SplineSet
130 452 m 5
 263 615 l 5
 320 615 l 4
 320 558 l 5
 187 395 l 5
 130 395 l 5
 130 452 l 5
325 395 m 5
 325 615 l 5
 365 655 l 4
 405 615 l 5
 405 395 l 5
 365 355 l 5
 325 395 l 5
325 85 m 5
 325 305 l 5
 365 345 l 4
 405 305 l 5
 405 85 l 5
 365 45 l 5
 325 85 l 5
EndSplineSet
EndChar

StartChar: two
Encoding: 50 50 2
Width: 550
Flags: W
HStem: 0 80<140 410> 310 80<140 410> 620 80<140 410>
VStem: 55 80<85 305> 415 80<395 615>
LayerCount: 2
Fore
SplineSet
140 390 m 1
 410 390 l 5
 451 350 l 4
 410 310 l 5
 140 310 l 1
 100 350 l 1
 140 390 l 1
140 700 m 1
 410 700 l 5
 451 660 l 4
 410 620 l 5
 140 620 l 1
 100 660 l 1
 140 700 l 1
140 80 m 1
 410 80 l 5
 451 40 l 4
 410 0 l 5
 140 0 l 1
 100 40 l 1
 140 80 l 1
415 395 m 5
 415 615 l 5
 455 655 l 4
 495 615 l 5
 495 395 l 5
 455 355 l 5
 415 395 l 5
55 85 m 1
 55 305 l 1
 95 345 l 0
 135 305 l 1
 135 85 l 1
 95 45 l 1
 55 85 l 1
EndSplineSet
EndChar

StartChar: three
Encoding: 51 51 3
Width: 550
Flags: W
HStem: 0 80<140 410> 310 80<140 410> 620 80<140 410>
VStem: 415 80<85 305 395 615>
LayerCount: 2
Fore
SplineSet
140 390 m 1
 410 390 l 5
 451 350 l 4
 410 310 l 5
 140 310 l 1
 100 350 l 1
 140 390 l 1
140 700 m 1
 410 700 l 5
 451 660 l 4
 410 620 l 5
 140 620 l 1
 100 660 l 1
 140 700 l 1
140 80 m 1
 410 80 l 5
 451 40 l 4
 410 0 l 5
 140 0 l 1
 100 40 l 1
 140 80 l 1
415 395 m 5
 415 615 l 5
 455 655 l 4
 495 615 l 5
 495 395 l 5
 455 355 l 5
 415 395 l 5
415 85 m 5
 415 305 l 5
 455 345 l 4
 495 305 l 5
 495 85 l 5
 455 45 l 5
 415 85 l 5
EndSplineSet
EndChar

StartChar: four
Encoding: 52 52 4
Width: 550
Flags: W
HStem: 310 80<140 410>
VStem: 55 80<395 615> 415 80<85 305 395 615>
LayerCount: 2
Fore
SplineSet
140 390 m 1
 410 390 l 5
 451 350 l 4
 410 310 l 5
 140 310 l 1
 100 350 l 1
 140 390 l 1
415 395 m 5
 415 615 l 5
 455 655 l 4
 495 615 l 5
 495 395 l 5
 455 355 l 5
 415 395 l 5
415 85 m 5
 415 305 l 5
 455 345 l 4
 495 305 l 5
 495 85 l 5
 455 45 l 5
 415 85 l 5
55 395 m 1
 55 615 l 1
 95 655 l 0
 135 615 l 1
 135 395 l 1
 95 355 l 1
 55 395 l 1
EndSplineSet
EndChar

StartChar: five
Encoding: 53 53 5
Width: 550
Flags: W
HStem: 0 80<140 410> 310 80<140 410> 620 80<140 410>
VStem: 55 80<395 615> 415 80<85 305>
LayerCount: 2
Fore
SplineSet
140 390 m 1
 410 390 l 5
 451 350 l 4
 410 310 l 5
 140 310 l 1
 100 350 l 1
 140 390 l 1
140 700 m 1
 410 700 l 5
 451 660 l 4
 410 620 l 5
 140 620 l 1
 100 660 l 1
 140 700 l 1
140 80 m 1
 410 80 l 5
 451 40 l 4
 410 0 l 5
 140 0 l 1
 100 40 l 1
 140 80 l 1
415 85 m 5
 415 305 l 5
 455 345 l 4
 495 305 l 5
 495 85 l 5
 455 45 l 5
 415 85 l 5
55 395 m 1
 55 615 l 1
 95 655 l 0
 135 615 l 1
 135 395 l 1
 95 355 l 1
 55 395 l 1
EndSplineSet
EndChar

StartChar: six
Encoding: 54 54 6
Width: 550
Flags: W
HStem: 0 80<140 410> 310 80<140 410> 620 80<140 410>
VStem: 55 80<85 305 395 615> 415 80<85 305>
LayerCount: 2
Fore
SplineSet
140 390 m 1
 410 390 l 5
 451 350 l 4
 410 310 l 5
 140 310 l 1
 100 350 l 1
 140 390 l 1
140 700 m 1
 410 700 l 5
 451 660 l 4
 410 620 l 5
 140 620 l 1
 100 660 l 1
 140 700 l 1
140 80 m 1
 410 80 l 5
 451 40 l 4
 410 0 l 5
 140 0 l 1
 100 40 l 1
 140 80 l 1
415 85 m 5
 415 305 l 5
 455 345 l 4
 495 305 l 5
 495 85 l 5
 455 45 l 5
 415 85 l 5
55 395 m 1
 55 615 l 1
 95 655 l 0
 135 615 l 1
 135 395 l 1
 95 355 l 1
 55 395 l 1
55 85 m 1
 55 305 l 1
 95 345 l 0
 135 305 l 1
 135 85 l 1
 95 45 l 1
 55 85 l 1
EndSplineSet
EndChar

StartChar: seven
Encoding: 55 55 7
Width: 550
Flags: WO
HStem: 620 80<140 410>
VStem: 415 80<85 305 395 615>
LayerCount: 2
Fore
SplineSet
415 395 m 1
 415 615 l 1
 455 655 l 0
 495 615 l 1
 495 395 l 1
 455 355 l 1
 415 395 l 1
415 85 m 1
 415 305 l 1
 455 345 l 0
 495 305 l 1
 495 85 l 1
 455 45 l 1
 415 85 l 1
140 700 m 1
 410 700 l 1
 451 660 l 0
 410 620 l 1
 140 620 l 1
 100 660 l 1
 140 700 l 1
EndSplineSet
EndChar

StartChar: eight
Encoding: 56 56 8
Width: 550
Flags: W
HStem: 0 80<140 410> 310 80<140 410> 620 80<140 410>
VStem: 55 80<85 305 395 615> 415 80<85 305 395 615>
LayerCount: 2
Fore
SplineSet
140 390 m 1
 410 390 l 1
 451 350 l 0
 410 310 l 1
 140 310 l 1
 100 350 l 1
 140 390 l 1
140 700 m 1
 410 700 l 1
 451 660 l 0
 410 620 l 1
 140 620 l 1
 100 660 l 1
 140 700 l 1
140 80 m 1
 410 80 l 1
 451 40 l 0
 410 0 l 1
 140 0 l 1
 100 40 l 1
 140 80 l 1
415 395 m 5
 415 615 l 5
 455 655 l 4
 495 615 l 5
 495 395 l 5
 455 355 l 5
 415 395 l 5
415 85 m 5
 415 305 l 5
 455 345 l 4
 495 305 l 5
 495 85 l 5
 455 45 l 5
 415 85 l 5
55 395 m 1
 55 615 l 1
 95 655 l 0
 135 615 l 1
 135 395 l 1
 95 355 l 1
 55 395 l 1
55 85 m 1
 55 305 l 1
 95 345 l 0
 135 305 l 1
 135 85 l 1
 95 45 l 1
 55 85 l 1
EndSplineSet
EndChar

StartChar: nine
Encoding: 57 57 9
Width: 550
Flags: W
HStem: 0 80<140 410> 310 80<140 410> 620 80<140 410>
VStem: 55 80<395 615> 415 80<85 305 395 615>
LayerCount: 2
Fore
SplineSet
140 390 m 1
 410 390 l 5
 451 350 l 4
 410 310 l 5
 140 310 l 1
 100 350 l 1
 140 390 l 1
140 700 m 1
 410 700 l 5
 451 660 l 4
 410 620 l 5
 140 620 l 1
 100 660 l 1
 140 700 l 1
140 80 m 1
 410 80 l 5
 451 40 l 4
 410 0 l 5
 140 0 l 1
 100 40 l 1
 140 80 l 1
415 395 m 5
 415 615 l 5
 455 655 l 4
 495 615 l 5
 495 395 l 5
 455 355 l 5
 415 395 l 5
415 85 m 5
 415 305 l 5
 455 345 l 4
 495 305 l 5
 495 85 l 5
 455 45 l 5
 415 85 l 5
55 395 m 1
 55 615 l 1
 95 655 l 0
 135 615 l 1
 135 395 l 1
 95 355 l 1
 55 395 l 1
EndSplineSet
EndChar
EndChars
EndSplineFont
